%YAML 1.1
%TAG !u! tag:unity3d.com,2011:
--- !u!114 &11400000
MonoBehaviour:
  m_ObjectHideFlags: 0
  m_CorrespondingSourceObject: {fileID: 0}
  m_PrefabInstance: {fileID: 0}
  m_PrefabAsset: {fileID: 0}
  m_GameObject: {fileID: 0}
  m_Enabled: 1
  m_EditorHideFlags: 0
  m_Script: {fileID: 11500000, guid: 7ceff335eb44c7b489090392a9afacd5, type: 3}
  m_Name: CurrencyConfig
  m_EditorClassIdentifier: 
  _defaultCurrencyId: Coin
  _currencies:
  - {fileID: 11400000, guid: 8bbcfb30fb0e6244a83cba3a169b4eff, type: 2}
